{
    "description": "IA32 UEFI for x86_64, with CSM, 4MB FD",
    "interface-types": [
        "uefi"
    ],
    "mapping": {
        "device": "flash",
        "executable": {
            "filename": "/usr/share/edk2-ovmf-4m/ia32/OVMF_CODE.csm.fd",
            "format": "raw"
        },
        "nvram-template": {
            "filename": "/usr/share/edk2-ovmf-4m/ia32/OVMF_VARS.fd",
            "format": "raw"
        }
    },
    "targets": [
        {
            "architecture": "x86_64",
            "machines": [
                "pc-i440fx-*",
                "pc-q35-*"
            ]
        }
    ],
    "features": [
        "acpi-s3",
        "acpi-s4",
        "verbose-dynamic"
    ],
    "tags": [

    ]
}
